{
  "images": [
    {
      "orientation": "portrait",
      "extent": "full-screen",
      "minimum-system-version": "7.0",
      "scale": "1x",
      "size": "768x1024",
      "idiom": "ipad",
      "filename": "Welcome.png"
    },
    {
      "orientation": "portrait",
      "extent": "full-screen",
      "minimum-system-version": "7.0",
      "scale": "2x",
      "size": "1536x2048",
      "idiom": "ipad",
      "filename": "Welcome@2x.png"
    }
  ],
  "properties": {},
  "info": {
    "version": 1,
    "author": ""
  }
}